1 10 20
100 200 125
201 210 89
900 1000 174
9888 10000 242
950 8000 262
2 9000 262
80 150 122
40000 80000 351
7683 12900 268
1000 2000 182
2000 3000 217
4000 5000 215
6000 7000 262
1050 2050 182
4050 5050 215
1 2 2
3 9 20
10000 20000 279
30000 40000 324
50000 60000 340
70000 80000 351
10 1 20
20 2 21
30 3 112
40 4 112
200 20000 279
3939 1928 238
283940 293030 389
9393 10928 255
345 678 145
1290 10298 262
5902 7893 262
9000 30000 308
8383 100000 351
70000 100000 351
900 970 174
9929 22909 279
4 800 171
8 9871 262
9000 7000 252
500 8000 262
37 94949 351
827 92837 351
7383 10398 260
6612 249998 443
4153 984900 525
3079 394469 443
3614 442207 449
5613 427853 449
7386 144548 375
4459 882771 525
1838 688364 509
8331 378379 443
1439 233410 443
6526 518158 470
6823 106164 351
2501 856451 525
9387 241739 443
4800 299874 443
6076 441528 449
2116 528336 470
9433 930993 525
1187 747913 509
2523 674311 509
6080 713673 509
8559 851550 525
9611 80918 351
3557 827783 509
6533 527950 470
681 285685 443
486 56393 340
5451 34165 308
6626 838308 525
4554 804611 509
6815 908888 525
9546 998282 525
4974 250279 443
2420 204802 383
8766 9324 260
3057 259675 443
8817 964355 525
1536 19305 279
4180 412239 449
4610 36278 324
7172 587240 470
6906 6864 182
9431 373953 443
4350 233173 443
4377 421445 449
5775 648577 509
789 979766 525
1746 727501 509
4159 300063 443
5075 810175 509
5258 9581 262
6864 545453 470
4961 948273 525
8636 561720 470
9960 10077 211
5707 139738 354
9564 282319 443
4159 499855 449
1851 571572 470
6364 512475 470
2517 990190 525
3829 165614 383
8593 871989 525
5566 251425 443
4019 182219 383
104 233674 443
4585 300611 443
9509 599838 470
8083 758954 509
1381 677881 509
2913 327971 443
8503 4031 262
774 231803 443
9910 167692 383
1685 276090 443
7685 805701 509
2473 355088 443
4245 126575 354
2415 447507 449
2008 887262 525
5940 408762 443
8067 36535 324
6702 797851 509
4270 95746 351
5229 622088 470
9861 971662 525
743 863571 525
4979 570074 470
6477 510940 449
6594 645183 509
2397 256531 443
7884 279192 443
9429 742279 509
7993 241107 443
6893 323220 443
4516 600084 470
8999 361455 443
2872 426588 449
5915 26097 282
8909 583311 470

