1 10 20
200 100 125
201 210 89
1 1000 179
1 1 1
400 400 28
90000 1 351
334 555 142
11 44 112
24070 44860 324
71074 69360 312
61978 18685 340
78235 59213 351
444 90268 351
56829 44 340
4 88414 351
33061 88557 351
4 27314 308
38172 54069 340
36 45 110
16210 73 276
98059 7 351
57 34 113
57 84561 351
5 77066 351
34 5 112
3 4 8
6 5 9
34 3456 217
56 76436 340
56 33081 308
34 56 113
34 78643 351
63 5 113
56 60963 340
34 75680 340
5 66 113
99901 34 351
85360 65 351
4 67852 340
68119 78459 351
21807 34403 311
52402 5805  324
4 41662 324
6 52451 324
34 86054 351
99036 90325 333
4 7069 262
33792 24386 308
65528 16818 340
36459 94907 351
54724 5 340
634 31711 308
56 34 113
53602 56 340
46 3 112
563 74865 340
854 14962 276
8 11632 268
2 7 17
44634 5 324
72577 34 340
3 45 112
34 6 112
6 91409 351
566 9758 262
566 45910 324
56 63 108
634 45 144
56 34 113
7537 356856 443
91102 567 351
867 7 171
566 42655 324
45 93667 351
74 565 144
45 6 112
45 7 112
845 6 171
6 7 17
9574 74 262
4 5 6
5 4 6
4 5 6
56485 6 340
45 7 112
54 67 113
83715 6 351
74 5 116
6745 31837 308
7 45 112
67 4 113
67 4 113
7 45 112
4400 6 238
7881 7 262
11437 74 268
57978 774 340
67 5 113
45 4567 238
45 67 113
74 5 116
7 45 112
4 5 6