1
1 10 20
100 200 125
201 210 89
900 1000 174
1 1 1
1 2 2
1 3 8
2 2 2
4 4 3
1 999999 525
1 999998 525
999999 999998 259
100 99 26
1 1000 179
1 2000 182
1 3000 182
1 4000 217
1 5000 238
1 6000 238
1 7000 238
1 8000 262
1 9000 262
1 10000 262
1 11000 262
1 12000 268
1 13000 268
1 14000 268
1 15000 276
1 16000 276
1 17000 276
1 18000 276
1 19000 279
1 20000 279
1 25000 282
1 30000 308
1 35000 308
1 40000 324
1 50000 324
1 100000 351
1 200000 383
1 300000 443
1 400000 443
1 500000 449
1 500001 449
2 7 17
500000 500000 152
999999 999999 259
1000 2000 182
2001 3000 217
3001 4000 238
4001 5000 215
5500 6000 236
5555 6666 262
6666 7777 257
7777 8888 252
8888 9999 260
1111 10000 262
5001 6000 236
6001 7000 262
7001 8000 252
9001 10000 260
10001 11000 268
11001 12000 250
12001 13000 263
13001 14000 276
14001 15000 271
50 51 25
9999 8888 260
8888 7777 252
7777 6666 257
6666 5555 262
5555 4444 210
4444 3333 238
3333 2222 217
2222 1111 182
600000 610000 403
610000 600000 403
700000 699999 230
6969 6868 257
69 69 15
600 666 145
666 600 145
700 701 83
701 702 83
100 100 26
200 200 27
300 300 17
400 400 28
500 500 111
600 600 18
700 700 83
800 800 29
900 900 55
1000 1000 112
9001 9000 141
8001 8000 115
7001 7000 32
6001 6000 50
5001 5000 65
4001 4000 114
3001 3000 49
2001 2000 113
1001 1000 143
999 1 179
