.................
----------------------------------------------------------------------
Ran 17 tests in 0.158s

OK
Name             Stmts   Miss Branch BrPart  Cover   Missing
------------------------------------------------------------
Collatz.py          50      1     18      2    96%   85, 72->85, 75->77
TestCollatz.py      75      0      0      0   100%
------------------------------------------------------------
TOTAL              125      1     18      2    98%

