1 10 20
100 200 125
201 210 89
900 1000 174
1 1 1
4 4 3
500 1500 182
5000 6999 262
1234 56789 340
1 999999 525
891918 250748 525
102247 298274 443
317530 718835 509
436583 759118 509
186253 556403 470
165061 255727 443
203933 357678 443
927365 929281 383
668110 719551 504
394003 463963 449
581652 631330 509
425067 428046 374
115278 374507 443
934661 940005 507
997510 999432 440
516093 635812 509
724004 897875 525
602119 894937 525
924893 944980 507
357566 956162 525
354664 729810 509
744348 855115 525
914915 982014 507
772055 914721 525
794406 856846 525
957407 998866 458
403962 817838 509
300932 380646 441
226920 992625 525
41710 65478 340
776204 994475 525
119721 738040 509
16630 74903 340
717320 890548 525
192374 751186 509
703782 783134 504
41216 139128 354
918531 946874 507
705187 968568 525
804354 810693 406
288857 799463 509
126044 204874 383
81903 356260 443
544761 911542 525
433596 668643 509
578984 778876 509
265994 625195 470
838824 951832 507
786369 966259 525
410336 647649 509
615132 920615 525
96122 627428 509
625878 957782 525
988988 992856 352
421874 832310 509
187889 968281 525
510050 652847 509
203292 517203 470
490531 919811 525
676730 689812 398
420448 539707 470
828052 913966 525
52999 670160 509
176347 558390 470
1524 799427 509
454354 637664 509
569858 599116 434
470970 498995 426
225199 277853 443
335485 894805 525
440475 975482 525
137581 490057 449
933519 955285 507
851817 864683 419
451671 720528 509
338745 541220 470
238727 397499 441
769467 779167 437
515567 735553 509
44733 289221 443
622988 828739 509
193170 970052 525
628022 792193 504
367333 806019 509
169579 755992 509
161551 518700 470
689861 945048 525
22230 537854 470
11711 859743 525
839333 844289 388
5 5 6
