1 10 20
100 200 125
201 210 89
900 1000 174
1 1 1
1 2 2
2 1 2
1 999999 525
2 100 119
100 2 119
1 100 119
10 10 7
100 100 26
1000 1000 112
100000 100000 129
999999 999999 259
100 1000 179
1000 10000 262
10000 25000 282
50000 25000 324
100000 50000 351
100000 250000 443
200000 400000 443
400000 600000 470
750000 500000 509
750000 999999 525
825000 900000 525
975958 816537 525
103186 40551 351
870652 999999 507
181632 24368 383
209063 1 383
454840 284277 449
330143 999999 525
816331 580920 509
734882 999999 525
969322 835847 525
724472 630268 504
310224 514106 470
798429 793679 468
924565 726608 525
278468 999999 525
339043 311837 384
718614 713412 380
410025 999999 525
733218 999999 525
590338 539712 452
545638 439809 470
256446 419036 449
799393 999999 525
359394 352093 379
160022 999999 525
310919 87294 443
780217 633276 504
710500 827892 468
60107 1 340
687983 999999 525
948535 999844 458
822912 999999 525
150311 129475 375
216035 561895 470
549612 466610 470
711193 636152 504
217147 217147 143
299749 676550 509
570254 375239 470
564904 433582 470
660784 999999 525
322439 477649 449
232773 729889 509
809392 784043 468
950517 999999 458
556313 999999 525
718841 520230 509
626952 999999 525
456034 920348 525
717825 717825 75
392578 392578 131
179346 60360 383
930579 999999 507
274837 260724 407
239336 38204 443
481587 253877 449
805760 999999 525
668071 632678 442
884963 868912 432
198760 198760 161
672948 672948 36
572823 747726 509
317349 695775 509
332666 398006 441
181750 302473 443
611061 864938 525
863922 626654 525
416163 935749 525
287654 481326 449
936392 999999 507
583440 999999 525
305032 285669 389
266648 999999 525
482407 235293 449
543160 718164 509
215669 1 383
167827 73362 383
717152 592689 509
818914 830339 450
27469 999999 525
558118 552717 421
724778 666644 504
942495 942495 233
94780 1 351
314727 999999 525
516896 315085 470
547294 986572 525
630555 996794 525
522509 522509 72
713435 772942 468
64289 632569 509
743853 999999 525
678078 999999 525
92892 521112 470
376891 999999 525
222260 559391 470
758768 570648 509
20763 1 279
704265 812106 504
375601 999999 525
9295 1 262
391471 922759 525
51213 1 324
865482 726765 525
254871 930774 525
971402 971402 91
444207 217732 449
289434 777087 509
389981 458037 449
864928 999999 507
641900 999999 525
295591 221938 443
243085 21929 443
883871 999999 507
992670 991513 321
915149 990268 507
257075 115042 443
529645 514440 439
75649 89627 351
709628 954430 525
380451 380451 61
625788 547547 447
395985 855706 525
616307 990990 525
495338 782863 509
802487 999999 525
719393 673171 504
652909 999999 525
381779 381779 131
397157 228203 443
432155 341119 449
276356 61051 443
116013 844280 525
77672 546025 470
187329 181907 347
218945 989403 525
28971 932702 525
515409 322156 470
87506 397557 443
680501 589576 509
160987 104261 383
874676 999999 507
995267 995267 153
993059 999999 440
593063 402202 470
378487 266830 441
565024 371488 470
279037 206649 443
363670 363670 136
489347 999999 525
