...................
----------------------------------------------------------------------
Ran 19 tests in 0.107s

OK
Name             Stmts   Miss Branch BrPart  Cover   Missing
------------------------------------------------------------
Collatz.py          37      0     18      0   100%
TestCollatz.py      78      0      0      0   100%
------------------------------------------------------------
TOTAL              115      0     18      0   100%
