...................
----------------------------------------------------------------------
Ran 19 tests in 5.233s

OK
Name             Stmts   Miss Branch BrPart  Cover   Missing
------------------------------------------------------------
Collatz.py          27      0      8      0   100%
TestCollatz.py      83      0      0      0   100%
------------------------------------------------------------
TOTAL              110      0      8      0   100%
